{
    "records": [
        {
            "attributes": {
                "type": "wrts_prcgvr__ServiceCatalogReportSetting__c",
                "referenceId": "wrts_prcgvr__ServiceCatalogReportSetting__cRef1"
            },
            "Name": "Opportunity",
            "wrts_prcgvr__CriteriaFields__c": "Name",
            "wrts_prcgvr__DisplayFields__c": "Name",
            "wrts_prcgvr__ObjectType__c": "Opportunity",
            "wrts_prcgvr__Order__c": 2
        },
        {
            "attributes": {
                "type": "wrts_prcgvr__ServiceCatalogReportSetting__c",
                "referenceId": "wrts_prcgvr__ServiceCatalogReportSetting__cRef2"
            },
            "Name": "Account",
            "wrts_prcgvr__CriteriaFields__c": "Name",
            "wrts_prcgvr__DisplayFields__c": "Name",
            "wrts_prcgvr__ObjectType__c": "Account",
            "wrts_prcgvr__Order__c": 1
        }
    ]
}