{
    "transitions": [
        {
            "transition": {
                "attributes": {
                    "type": "wrts_prcgvr__PhaseTransition__c"
                },
                "wrts_prcgvr__Type__c": "A",
                "wrts_prcgvr__RecordTypeId__c": "0120Q0000004tYTQAY",
                "wrts_prcgvr__RecordTypeName__c": "SwitchOut_ELE",
                "wrts_prcgvr__OriginPhase__c": "AN010",
                "wrts_prcgvr__Code__c": "5786aa21-1ea3-4fb9-83b1-4da7f2456174",
                "wrts_prcgvr__DestinationPhase__c": "RC010",
                "wrts_prcgvr__Label__c": "Executed",
                "wrts_prcgvr__Description__c": "CANC-100 refused, positive execution",
                "wrts_prcgvr__AskForConfirmation__c": false,
                "wrts_prcgvr__IsManualCallout__c": false,
                "wrts_prcgvr__Tags__c": "AsyncResponse"
            },
            "dependencies": null,
            "actions": [
                {
                    "attributes": {
                        "type": "wrts_prcgvr__PhaseTransitionDetail__c"
                    },
                    "wrts_prcgvr__PhaseTransition__c": "a0Y3N000000hssjUAA",
                    "wrts_prcgvr__Field__c": "$Global.Context",
                    "wrts_prcgvr__StaticValue__c": "03",
                    "wrts_prcgvr__Operation__c": "e",
                    "wrts_prcgvr__Type__c": "Condition"
                },
                {
                    "attributes": {
                        "type": "wrts_prcgvr__PhaseTransitionDetail__c"
                    },
                    "wrts_prcgvr__PhaseTransition__c": "a0Y3N000000hssjUAA",
                    "wrts_prcgvr__Field__c": "Status",
                    "wrts_prcgvr__StaticValue__c": "Executed",
                    "wrts_prcgvr__Type__c": "Action"
                }
            ]
        },
        {
            "transition": {
                "attributes": {
                    "type": "wrts_prcgvr__PhaseTransition__c"
                },
                "wrts_prcgvr__Type__c": "A",
                "wrts_prcgvr__RecordTypeId__c": "0120Q0000004tYTQAY",
                "wrts_prcgvr__RecordTypeName__c": "SwitchOut_ELE",
                "wrts_prcgvr__OriginPhase__c": "AN010",
                "wrts_prcgvr__Code__c": "df57c89c-e128-49a5-97be-2bdbe3ea8913",
                "wrts_prcgvr__DestinationPhase__c": "RC010",
                "wrts_prcgvr__Label__c": "Cancel - CANC-100",
                "wrts_prcgvr__Description__c": "(03 of CANC-100)",
                "wrts_prcgvr__AskForConfirmation__c": false,
                "wrts_prcgvr__IsManualCallout__c": false,
                "wrts_prcgvr__Tags__c": "Cancellation"
            },
            "dependencies": null,
            "actions": [
                {
                    "attributes": {
                        "type": "wrts_prcgvr__PhaseTransitionDetail__c"
                    },
                    "wrts_prcgvr__PhaseTransition__c": "a0Y3N0000003VOAUA2",
                    "wrts_prcgvr__Field__c": "$Global.Context",
                    "wrts_prcgvr__StaticValue__c": "03",
                    "wrts_prcgvr__Operation__c": "e",
                    "wrts_prcgvr__Type__c": "Condition"
                },
                {
                    "attributes": {
                        "type": "wrts_prcgvr__PhaseTransitionDetail__c"
                    },
                    "wrts_prcgvr__PhaseTransition__c": "a0Y3N0000003VOAUA2",
                    "wrts_prcgvr__Field__c": "Status",
                    "wrts_prcgvr__StaticValue__c": "Canceled",
                    "wrts_prcgvr__Type__c": "Action"
                }
            ]
        },
        {
            "transition": {
                "attributes": {
                    "type": "wrts_prcgvr__PhaseTransition__c"
                },
                "wrts_prcgvr__Type__c": "A",
                "wrts_prcgvr__RecordTypeId__c": "0120Q0000004tYTQAY",
                "wrts_prcgvr__RecordTypeName__c": "SwitchOut_ELE",
                "wrts_prcgvr__OriginPhase__c": "AN020",
                "wrts_prcgvr__Code__c": "9ab2ea2c-5fff-4a69-bd97-91ca7c00835a",
                "wrts_prcgvr__DestinationPhase__c": "RC010",
                "wrts_prcgvr__Label__c": "Cancel - SWI-066",
                "wrts_prcgvr__AskForConfirmation__c": false,
                "wrts_prcgvr__IsManualCallout__c": false,
                "wrts_prcgvr__Tags__c": "AsyncResponse"
            },
            "dependencies": null,
            "actions": [
                {
                    "attributes": {
                        "type": "wrts_prcgvr__PhaseTransitionDetail__c"
                    },
                    "wrts_prcgvr__PhaseTransition__c": "a0Y3N000000hxOwUAI",
                    "wrts_prcgvr__Field__c": "$Global.Context",
                    "wrts_prcgvr__StaticValue__c": "SWI-066",
                    "wrts_prcgvr__Operation__c": "e",
                    "wrts_prcgvr__Type__c": "Condition"
                },
                {
                    "attributes": {
                        "type": "wrts_prcgvr__PhaseTransitionDetail__c"
                    },
                    "wrts_prcgvr__PhaseTransition__c": "a0Y3N000000hxOwUAI",
                    "wrts_prcgvr__Field__c": "Status",
                    "wrts_prcgvr__StaticValue__c": "Canceled",
                    "wrts_prcgvr__Type__c": "Action"
                }
            ]
        },
        {
            "transition": {
                "attributes": {
                    "type": "wrts_prcgvr__PhaseTransition__c"
                },
                "wrts_prcgvr__Type__c": "A",
                "wrts_prcgvr__RecordTypeId__c": "0120Q0000004tYTQAY",
                "wrts_prcgvr__RecordTypeName__c": "SwitchOut_ELE",
                "wrts_prcgvr__OriginPhase__c": "BL010",
                "wrts_prcgvr__Code__c": "50fd89ce-98f9-4a5d-8d70-d55c4a51b222",
                "wrts_prcgvr__DestinationPhase__c": "AN010",
                "wrts_prcgvr__Label__c": "Annulment",
                "wrts_prcgvr__AskForConfirmation__c": false,
                "wrts_prcgvr__IsManualCallout__c": false,
                "wrts_prcgvr__Tags__c": "Cancellation"
            },
            "dependencies": null,
            "actions": null
        },
        {
            "transition": {
                "attributes": {
                    "type": "wrts_prcgvr__PhaseTransition__c"
                },
                "wrts_prcgvr__Type__c": "A",
                "wrts_prcgvr__RecordTypeId__c": "0120Q0000004tYTQAY",
                "wrts_prcgvr__RecordTypeName__c": "SwitchOut_ELE",
                "wrts_prcgvr__OriginPhase__c": "BL010",
                "wrts_prcgvr__Code__c": "05941fc7-71b9-4025-a3e0-691397a95e77",
                "wrts_prcgvr__DestinationPhase__c": "AN020",
                "wrts_prcgvr__AskForConfirmation__c": false,
                "wrts_prcgvr__IsManualCallout__c": false,
                "wrts_prcgvr__Tags__c": "AsyncResponse"
            },
            "dependencies": null,
            "actions": [
                {
                    "attributes": {
                        "type": "wrts_prcgvr__PhaseTransitionDetail__c"
                    },
                    "wrts_prcgvr__PhaseTransition__c": "a0Y3N000000hxOSUAY",
                    "wrts_prcgvr__Field__c": "$Global.Context",
                    "wrts_prcgvr__StaticValue__c": "SWI-066",
                    "wrts_prcgvr__Operation__c": "e",
                    "wrts_prcgvr__Type__c": "Condition"
                }
            ]
        },
        {
            "transition": {
                "attributes": {
                    "type": "wrts_prcgvr__PhaseTransition__c"
                },
                "wrts_prcgvr__Type__c": "A",
                "wrts_prcgvr__RecordTypeId__c": "0120Q0000004tYTQAY",
                "wrts_prcgvr__RecordTypeName__c": "SwitchOut_ELE",
                "wrts_prcgvr__OriginPhase__c": "BL010",
                "wrts_prcgvr__Code__c": "bc5b595f-9b4b-46b9-9bab-6a63e7f54ccb",
                "wrts_prcgvr__DestinationPhase__c": "DI030",
                "wrts_prcgvr__AskForConfirmation__c": false,
                "wrts_prcgvr__IsManualCallout__c": false,
                "wrts_prcgvr__Tags__c": "AsyncResponse"
            },
            "dependencies": null,
            "actions": [
                {
                    "attributes": {
                        "type": "wrts_prcgvr__PhaseTransitionDetail__c"
                    },
                    "wrts_prcgvr__PhaseTransition__c": "a0Y3N000000aGL3UAM",
                    "wrts_prcgvr__Field__c": "$Global.Context",
                    "wrts_prcgvr__StaticValue__c": "IN_EXEC",
                    "wrts_prcgvr__Operation__c": "e",
                    "wrts_prcgvr__Type__c": "Condition"
                }
            ]
        },
        {
            "transition": {
                "attributes": {
                    "type": "wrts_prcgvr__PhaseTransition__c"
                },
                "wrts_prcgvr__Type__c": "A",
                "wrts_prcgvr__RecordTypeId__c": "0120Q0000004tYTQAY",
                "wrts_prcgvr__RecordTypeName__c": "SwitchOut_ELE",
                "wrts_prcgvr__OriginPhase__c": "BL010",
                "wrts_prcgvr__Code__c": "b333fa2b-bc6c-4b6a-8d15-5bd8a260b08d",
                "wrts_prcgvr__DestinationPhase__c": "RC010",
                "wrts_prcgvr__Label__c": "Executed",
                "wrts_prcgvr__AskForConfirmation__c": false,
                "wrts_prcgvr__IsManualCallout__c": false,
                "wrts_prcgvr__Tags__c": "AsyncResponse"
            },
            "dependencies": null,
            "actions": [
                {
                    "attributes": {
                        "type": "wrts_prcgvr__PhaseTransitionDetail__c"
                    },
                    "wrts_prcgvr__PhaseTransition__c": "a0Y3N0000003VO5UAM",
                    "wrts_prcgvr__Field__c": "$Global.Context",
                    "wrts_prcgvr__StaticValue__c": "03",
                    "wrts_prcgvr__Operation__c": "e",
                    "wrts_prcgvr__Type__c": "Condition"
                },
                {
                    "attributes": {
                        "type": "wrts_prcgvr__PhaseTransitionDetail__c"
                    },
                    "wrts_prcgvr__PhaseTransition__c": "a0Y3N0000003VO5UAM",
                    "wrts_prcgvr__Field__c": "Status",
                    "wrts_prcgvr__StaticValue__c": "Executed",
                    "wrts_prcgvr__Type__c": "Action"
                }
            ]
        },
        {
            "transition": {
                "attributes": {
                    "type": "wrts_prcgvr__PhaseTransition__c"
                },
                "wrts_prcgvr__Type__c": "A",
                "wrts_prcgvr__RecordTypeId__c": "0120Q0000004tYTQAY",
                "wrts_prcgvr__RecordTypeName__c": "SwitchOut_ELE",
                "wrts_prcgvr__OriginPhase__c": "CN010",
                "wrts_prcgvr__Code__c": "a55af298-6caa-4ad0-8ce0-87cf1e17c555",
                "wrts_prcgvr__DestinationPhase__c": "RC010",
                "wrts_prcgvr__Label__c": "Non-Enel Cancel (Retention)",
                "wrts_prcgvr__AskForConfirmation__c": false,
                "wrts_prcgvr__IsManualCallout__c": false,
                "wrts_prcgvr__Tags__c": "DocumentsVerified"
            },
            "dependencies": null,
            "actions": [
                {
                    "attributes": {
                        "type": "wrts_prcgvr__PhaseTransitionDetail__c"
                    },
                    "wrts_prcgvr__PhaseTransition__c": "a0Y3N000000i1JyUAI",
                    "wrts_prcgvr__Field__c": "CancellationReason__c",
                    "wrts_prcgvr__StaticValue__c": "Retention accepted",
                    "wrts_prcgvr__Operation__c": "e",
                    "wrts_prcgvr__Type__c": "Condition"
                },
                {
                    "attributes": {
                        "type": "wrts_prcgvr__PhaseTransitionDetail__c"
                    },
                    "wrts_prcgvr__PhaseTransition__c": "a0Y3N000000i1JyUAI",
                    "wrts_prcgvr__Field__c": "IsDisCoENEL__c",
                    "wrts_prcgvr__StaticValue__c": "false",
                    "wrts_prcgvr__Operation__c": "e",
                    "wrts_prcgvr__Type__c": "Condition"
                },
                {
                    "attributes": {
                        "type": "wrts_prcgvr__PhaseTransitionDetail__c"
                    },
                    "wrts_prcgvr__PhaseTransition__c": "a0Y3N000000i1JyUAI",
                    "wrts_prcgvr__Field__c": "Status",
                    "wrts_prcgvr__StaticValue__c": "Canceled",
                    "wrts_prcgvr__Type__c": "Action"
                }
            ]
        },
        {
            "transition": {
                "attributes": {
                    "type": "wrts_prcgvr__PhaseTransition__c"
                },
                "wrts_prcgvr__Type__c": "A",
                "wrts_prcgvr__RecordTypeId__c": "0120Q0000004tYTQAY",
                "wrts_prcgvr__RecordTypeName__c": "SwitchOut_ELE",
                "wrts_prcgvr__OriginPhase__c": "CN010",
                "wrts_prcgvr__Code__c": "1164d8bc-37f3-4bfe-8e21-3e11de9ae53d",
                "wrts_prcgvr__DestinationPhase__c": "RC010",
                "wrts_prcgvr__Label__c": "Cancel 066",
                "wrts_prcgvr__AskForConfirmation__c": false,
                "wrts_prcgvr__IsManualCallout__c": false,
                "wrts_prcgvr__Tags__c": "AsyncResponse"
            },
            "dependencies": null,
            "actions": [
                {
                    "attributes": {
                        "type": "wrts_prcgvr__PhaseTransitionDetail__c"
                    },
                    "wrts_prcgvr__PhaseTransition__c": "a0Y3N000000hkWSUAY",
                    "wrts_prcgvr__Field__c": "$Global.Context",
                    "wrts_prcgvr__StaticValue__c": "SWI-066",
                    "wrts_prcgvr__Operation__c": "e",
                    "wrts_prcgvr__Type__c": "Condition"
                },
                {
                    "attributes": {
                        "type": "wrts_prcgvr__PhaseTransitionDetail__c"
                    },
                    "wrts_prcgvr__PhaseTransition__c": "a0Y3N000000hkWSUAY",
                    "wrts_prcgvr__Field__c": "IsDisCoENEL__c",
                    "wrts_prcgvr__StaticValue__c": "true",
                    "wrts_prcgvr__Operation__c": "e",
                    "wrts_prcgvr__Type__c": "Condition"
                },
                {
                    "attributes": {
                        "type": "wrts_prcgvr__PhaseTransitionDetail__c"
                    },
                    "wrts_prcgvr__PhaseTransition__c": "a0Y3N000000hkWSUAY",
                    "wrts_prcgvr__Field__c": "Status",
                    "wrts_prcgvr__StaticValue__c": "Canceled",
                    "wrts_prcgvr__Type__c": "Action"
                }
            ]
        },
        {
            "transition": {
                "attributes": {
                    "type": "wrts_prcgvr__PhaseTransition__c"
                },
                "wrts_prcgvr__Type__c": "A",
                "wrts_prcgvr__RecordTypeId__c": "0120Q0000004tYTQAY",
                "wrts_prcgvr__RecordTypeName__c": "SwitchOut_ELE",
                "wrts_prcgvr__OriginPhase__c": "CN010",
                "wrts_prcgvr__Code__c": "d1e3e935-a54a-4619-8822-a8afb07d30bd",
                "wrts_prcgvr__DestinationPhase__c": "RC010",
                "wrts_prcgvr__Label__c": "Non-Enel Cancel (no Retention)",
                "wrts_prcgvr__Description__c": "Do not wait for 066 close after print",
                "wrts_prcgvr__AskForConfirmation__c": false,
                "wrts_prcgvr__IsManualCallout__c": false,
                "wrts_prcgvr__Tags__c": "PrintDone"
            },
            "dependencies": null,
            "actions": [
                {
                    "attributes": {
                        "type": "wrts_prcgvr__PhaseTransitionDetail__c"
                    },
                    "wrts_prcgvr__PhaseTransition__c": "a0Y3N000000hkW8UAI",
                    "wrts_prcgvr__Field__c": "CancellationReason__c",
                    "wrts_prcgvr__StaticValue__c": "Retention accepted",
                    "wrts_prcgvr__Operation__c": "ne",
                    "wrts_prcgvr__Type__c": "Condition"
                },
                {
                    "attributes": {
                        "type": "wrts_prcgvr__PhaseTransitionDetail__c"
                    },
                    "wrts_prcgvr__PhaseTransition__c": "a0Y3N000000hkW8UAI",
                    "wrts_prcgvr__Field__c": "IsDisCoENEL__c",
                    "wrts_prcgvr__StaticValue__c": "false",
                    "wrts_prcgvr__Operation__c": "e",
                    "wrts_prcgvr__Type__c": "Condition"
                },
                {
                    "attributes": {
                        "type": "wrts_prcgvr__PhaseTransitionDetail__c"
                    },
                    "wrts_prcgvr__PhaseTransition__c": "a0Y3N000000hkW8UAI",
                    "wrts_prcgvr__Field__c": "Status",
                    "wrts_prcgvr__StaticValue__c": "Canceled",
                    "wrts_prcgvr__Type__c": "Action"
                }
            ]
        },
        {
            "transition": {
                "attributes": {
                    "type": "wrts_prcgvr__PhaseTransition__c"
                },
                "wrts_prcgvr__Type__c": "A",
                "wrts_prcgvr__RecordTypeId__c": "0120Q0000004tYTQAY",
                "wrts_prcgvr__RecordTypeName__c": "SwitchOut_ELE",
                "wrts_prcgvr__OriginPhase__c": "DI030",
                "wrts_prcgvr__Code__c": "e71ee3f7-beb2-4d69-b9b2-f4ab5fe9feb1",
                "wrts_prcgvr__DestinationPhase__c": "AN010",
                "wrts_prcgvr__Label__c": "Annulment (non-ENEL only)",
                "wrts_prcgvr__AskForConfirmation__c": false,
                "wrts_prcgvr__IsManualCallout__c": false,
                "wrts_prcgvr__Tags__c": "Cancellation"
            },
            "dependencies": null,
            "actions": [
                {
                    "attributes": {
                        "type": "wrts_prcgvr__PhaseTransitionDetail__c"
                    },
                    "wrts_prcgvr__PhaseTransition__c": "a0Y3N000000hkP2UAI",
                    "wrts_prcgvr__Field__c": "IsDisCoENEL__c",
                    "wrts_prcgvr__StaticValue__c": "false",
                    "wrts_prcgvr__Operation__c": "e",
                    "wrts_prcgvr__Type__c": "Condition"
                }
            ]
        },
        {
            "transition": {
                "attributes": {
                    "type": "wrts_prcgvr__PhaseTransition__c"
                },
                "wrts_prcgvr__Type__c": "A",
                "wrts_prcgvr__RecordTypeId__c": "0120Q0000004tYTQAY",
                "wrts_prcgvr__RecordTypeName__c": "SwitchOut_ELE",
                "wrts_prcgvr__OriginPhase__c": "DI030",
                "wrts_prcgvr__Code__c": "03d908a7-7ae2-489b-a2d1-8af6f7ea2400",
                "wrts_prcgvr__DestinationPhase__c": "RC010",
                "wrts_prcgvr__Label__c": "Executed",
                "wrts_prcgvr__AskForConfirmation__c": false,
                "wrts_prcgvr__IsManualCallout__c": false,
                "wrts_prcgvr__Tags__c": "AsyncResponse"
            },
            "dependencies": null,
            "actions": [
                {
                    "attributes": {
                        "type": "wrts_prcgvr__PhaseTransitionDetail__c"
                    },
                    "wrts_prcgvr__PhaseTransition__c": "a0Y3N000000aD93UAE",
                    "wrts_prcgvr__Field__c": "$Global.Context",
                    "wrts_prcgvr__StaticValue__c": "03",
                    "wrts_prcgvr__Operation__c": "e",
                    "wrts_prcgvr__Type__c": "Condition"
                },
                {
                    "attributes": {
                        "type": "wrts_prcgvr__PhaseTransitionDetail__c"
                    },
                    "wrts_prcgvr__PhaseTransition__c": "a0Y3N000000aD93UAE",
                    "wrts_prcgvr__Field__c": "Status",
                    "wrts_prcgvr__StaticValue__c": "Executed",
                    "wrts_prcgvr__Type__c": "Action"
                }
            ]
        },
        {
            "transition": {
                "attributes": {
                    "type": "wrts_prcgvr__PhaseTransition__c"
                },
                "wrts_prcgvr__Type__c": "A",
                "wrts_prcgvr__RecordTypeId__c": "0120Q0000004tYTQAY",
                "wrts_prcgvr__RecordTypeName__c": "SwitchOut_ELE",
                "wrts_prcgvr__OriginPhase__c": "RE010",
                "wrts_prcgvr__Code__c": "0a190878-2979-4a08-a7cd-bf94cd9c0eb9",
                "wrts_prcgvr__DestinationPhase__c": "BL010",
                "wrts_prcgvr__Label__c": "Send To Disco",
                "wrts_prcgvr__AskForConfirmation__c": false,
                "wrts_prcgvr__IsManualCallout__c": false
            },
            "dependencies": null,
            "actions": [
                {
                    "attributes": {
                        "type": "wrts_prcgvr__PhaseTransitionDetail__c"
                    },
                    "wrts_prcgvr__PhaseTransition__c": "a0Y3N000000hcLYUAY",
                    "wrts_prcgvr__Field__c": "IsDisCoENEL__c",
                    "wrts_prcgvr__StaticValue__c": "false",
                    "wrts_prcgvr__Operation__c": "e",
                    "wrts_prcgvr__Type__c": "Condition"
                }
            ]
        },
        {
            "transition": {
                "attributes": {
                    "type": "wrts_prcgvr__PhaseTransition__c"
                },
                "wrts_prcgvr__Type__c": "A",
                "wrts_prcgvr__RecordTypeId__c": "0120Q0000004tYTQAY",
                "wrts_prcgvr__RecordTypeName__c": "SwitchOut_ELE",
                "wrts_prcgvr__OriginPhase__c": "RE010",
                "wrts_prcgvr__Code__c": "74533691-0105-4793-a0b5-e6d2c01edde8",
                "wrts_prcgvr__DestinationPhase__c": "RC010",
                "wrts_prcgvr__Label__c": "Cancellation",
                "wrts_prcgvr__AskForConfirmation__c": false,
                "wrts_prcgvr__IsManualCallout__c": false,
                "wrts_prcgvr__Tags__c": "Cancellation"
            },
            "dependencies": null,
            "actions": [
                {
                    "attributes": {
                        "type": "wrts_prcgvr__PhaseTransitionDetail__c"
                    },
                    "wrts_prcgvr__PhaseTransition__c": "a0Y3N000000hjo2UAA",
                    "wrts_prcgvr__Field__c": "Status",
                    "wrts_prcgvr__StaticValue__c": "Canceled",
                    "wrts_prcgvr__Type__c": "Action"
                }
            ]
        },
        {
            "transition": {
                "attributes": {
                    "type": "wrts_prcgvr__PhaseTransition__c"
                },
                "wrts_prcgvr__Type__c": "A",
                "wrts_prcgvr__RecordTypeId__c": "0120Q0000004tYTQAY",
                "wrts_prcgvr__RecordTypeName__c": "SwitchOut_ELE",
                "wrts_prcgvr__OriginPhase__c": "RE010",
                "wrts_prcgvr__Code__c": "557b8b4f-53fd-4b63-ad50-515f706ceb8f",
                "wrts_prcgvr__DestinationPhase__c": "RC010",
                "wrts_prcgvr__Label__c": "Cancel 066",
                "wrts_prcgvr__AskForConfirmation__c": false,
                "wrts_prcgvr__IsManualCallout__c": false,
                "wrts_prcgvr__Tags__c": "AsyncResponse"
            },
            "dependencies": null,
            "actions": [
                {
                    "attributes": {
                        "type": "wrts_prcgvr__PhaseTransitionDetail__c"
                    },
                    "wrts_prcgvr__PhaseTransition__c": "a0Y3N000000hxONUAY",
                    "wrts_prcgvr__Field__c": "$Global.Context",
                    "wrts_prcgvr__StaticValue__c": "SWI-066",
                    "wrts_prcgvr__Operation__c": "e",
                    "wrts_prcgvr__Type__c": "Condition"
                },
                {
                    "attributes": {
                        "type": "wrts_prcgvr__PhaseTransitionDetail__c"
                    },
                    "wrts_prcgvr__PhaseTransition__c": "a0Y3N000000hxONUAY",
                    "wrts_prcgvr__Field__c": "IsDisCoENEL__c",
                    "wrts_prcgvr__StaticValue__c": "true",
                    "wrts_prcgvr__Operation__c": "e",
                    "wrts_prcgvr__Type__c": "Condition"
                },
                {
                    "attributes": {
                        "type": "wrts_prcgvr__PhaseTransitionDetail__c"
                    },
                    "wrts_prcgvr__PhaseTransition__c": "a0Y3N000000hxONUAY",
                    "wrts_prcgvr__Field__c": "Status",
                    "wrts_prcgvr__StaticValue__c": "Canceled",
                    "wrts_prcgvr__Type__c": "Action"
                }
            ]
        },
        {
            "transition": {
                "attributes": {
                    "type": "wrts_prcgvr__PhaseTransition__c"
                },
                "wrts_prcgvr__Type__c": "A",
                "wrts_prcgvr__RecordTypeId__c": "0120Q0000004tYTQAY",
                "wrts_prcgvr__RecordTypeName__c": "SwitchOut_ELE",
                "wrts_prcgvr__OriginPhase__c": "RE010",
                "wrts_prcgvr__Code__c": "d4746c9f-a16e-4a84-8372-ef874049ef00",
                "wrts_prcgvr__DestinationPhase__c": "WT010",
                "wrts_prcgvr__Label__c": "Waiting - no DSO",
                "wrts_prcgvr__Description__c": "NO 035 for non ENEL area",
                "wrts_prcgvr__AskForConfirmation__c": false,
                "wrts_prcgvr__IsManualCallout__c": false,
                "wrts_prcgvr__Tags__c": "DocumentsVerified"
            },
            "dependencies": null,
            "actions": [
                {
                    "attributes": {
                        "type": "wrts_prcgvr__PhaseTransitionDetail__c"
                    },
                    "wrts_prcgvr__PhaseTransition__c": "a0Y3N000000hfuLUAQ",
                    "wrts_prcgvr__Field__c": "IsDisCoENEL__c",
                    "wrts_prcgvr__StaticValue__c": "false",
                    "wrts_prcgvr__Operation__c": "e",
                    "wrts_prcgvr__Type__c": "Condition"
                }
            ]
        },
        {
            "transition": {
                "attributes": {
                    "type": "wrts_prcgvr__PhaseTransition__c"
                },
                "wrts_prcgvr__Type__c": "A",
                "wrts_prcgvr__RecordTypeId__c": "0120Q0000004tYTQAY",
                "wrts_prcgvr__RecordTypeName__c": "SwitchOut_ELE",
                "wrts_prcgvr__OriginPhase__c": "RE010",
                "wrts_prcgvr__Code__c": "0184d5aa-95d9-46a9-bb2c-deeafe0f543a",
                "wrts_prcgvr__DestinationPhase__c": "WT010",
                "wrts_prcgvr__Label__c": "Waiting for DSO",
                "wrts_prcgvr__AskForConfirmation__c": false,
                "wrts_prcgvr__IsManualCallout__c": false,
                "wrts_prcgvr__Tags__c": "AsyncResponse"
            },
            "dependencies": null,
            "actions": [
                {
                    "attributes": {
                        "type": "wrts_prcgvr__PhaseTransitionDetail__c"
                    },
                    "wrts_prcgvr__PhaseTransition__c": "a0Y0Q000001h62qUAA",
                    "wrts_prcgvr__Field__c": "$Global.Context",
                    "wrts_prcgvr__StaticValue__c": "SWI-035",
                    "wrts_prcgvr__Operation__c": "e",
                    "wrts_prcgvr__Type__c": "Condition"
                },
                {
                    "attributes": {
                        "type": "wrts_prcgvr__PhaseTransitionDetail__c"
                    },
                    "wrts_prcgvr__PhaseTransition__c": "a0Y0Q000001h62qUAA",
                    "wrts_prcgvr__Field__c": "IsDisCoENEL__c",
                    "wrts_prcgvr__StaticValue__c": "true",
                    "wrts_prcgvr__Operation__c": "e",
                    "wrts_prcgvr__Type__c": "Condition"
                }
            ]
        },
        {
            "transition": {
                "attributes": {
                    "type": "wrts_prcgvr__PhaseTransition__c"
                },
                "wrts_prcgvr__Type__c": "A",
                "wrts_prcgvr__RecordTypeId__c": "0120Q0000004tYTQAY",
                "wrts_prcgvr__RecordTypeName__c": "SwitchOut_ELE",
                "wrts_prcgvr__OriginPhase__c": "WT010",
                "wrts_prcgvr__Code__c": "c2465e58-4adb-4037-8330-563c211b5084",
                "wrts_prcgvr__DestinationPhase__c": "BL010",
                "wrts_prcgvr__Label__c": "Time expired",
                "wrts_prcgvr__AskForConfirmation__c": false,
                "wrts_prcgvr__IsManualCallout__c": false
            },
            "dependencies": null,
            "actions": null
        },
        {
            "transition": {
                "attributes": {
                    "type": "wrts_prcgvr__PhaseTransition__c"
                },
                "wrts_prcgvr__Type__c": "A",
                "wrts_prcgvr__RecordTypeId__c": "0120Q0000004tYTQAY",
                "wrts_prcgvr__RecordTypeName__c": "SwitchOut_ELE",
                "wrts_prcgvr__OriginPhase__c": "WT010",
                "wrts_prcgvr__Code__c": "1af1d80d-68c1-4014-a903-1a10c1d78369",
                "wrts_prcgvr__DestinationPhase__c": "CN010",
                "wrts_prcgvr__Label__c": "Cancel for Retention",
                "wrts_prcgvr__AskForConfirmation__c": false,
                "wrts_prcgvr__IsManualCallout__c": false,
                "wrts_prcgvr__Tags__c": "Cancellation"
            },
            "dependencies": null,
            "actions": [
                {
                    "attributes": {
                        "type": "wrts_prcgvr__PhaseTransitionDetail__c"
                    },
                    "wrts_prcgvr__PhaseTransition__c": "a0Y3N000000i19tUAA",
                    "wrts_prcgvr__Field__c": "CancellationReason__c",
                    "wrts_prcgvr__StaticValue__c": "Retention accepted",
                    "wrts_prcgvr__Operation__c": "e",
                    "wrts_prcgvr__Type__c": "Condition"
                }
            ]
        },
        {
            "transition": {
                "attributes": {
                    "type": "wrts_prcgvr__PhaseTransition__c"
                },
                "wrts_prcgvr__Type__c": "A",
                "wrts_prcgvr__RecordTypeId__c": "0120Q0000004tYTQAY",
                "wrts_prcgvr__RecordTypeName__c": "SwitchOut_ELE",
                "wrts_prcgvr__OriginPhase__c": "WT010",
                "wrts_prcgvr__Code__c": "88fb4007-f158-4c96-b464-e5850ab2550d",
                "wrts_prcgvr__DestinationPhase__c": "CN010",
                "wrts_prcgvr__Label__c": "Cancel",
                "wrts_prcgvr__AskForConfirmation__c": false,
                "wrts_prcgvr__IsManualCallout__c": false,
                "wrts_prcgvr__Tags__c": "Cancellation"
            },
            "dependencies": null,
            "actions": [
                {
                    "attributes": {
                        "type": "wrts_prcgvr__PhaseTransitionDetail__c"
                    },
                    "wrts_prcgvr__PhaseTransition__c": "a0Y3N000000hkWhUAI",
                    "wrts_prcgvr__Field__c": "CancellationReason__c",
                    "wrts_prcgvr__StaticValue__c": "Retention accepted",
                    "wrts_prcgvr__Operation__c": "ne",
                    "wrts_prcgvr__Type__c": "Condition"
                }
            ]
        },
        {
            "transition": {
                "attributes": {
                    "type": "wrts_prcgvr__PhaseTransition__c"
                },
                "wrts_prcgvr__Type__c": "A",
                "wrts_prcgvr__RecordTypeId__c": "0120Q0000004tYTQAY",
                "wrts_prcgvr__RecordTypeName__c": "SwitchOut_ELE",
                "wrts_prcgvr__OriginPhase__c": "WT010",
                "wrts_prcgvr__Code__c": "99e7c43b-4ffb-45ff-a2b0-2dcdc6a54f41",
                "wrts_prcgvr__DestinationPhase__c": "RC010",
                "wrts_prcgvr__Label__c": "Cancel 066",
                "wrts_prcgvr__AskForConfirmation__c": false,
                "wrts_prcgvr__IsManualCallout__c": false,
                "wrts_prcgvr__Tags__c": "AsyncResponse"
            },
            "dependencies": null,
            "actions": [
                {
                    "attributes": {
                        "type": "wrts_prcgvr__PhaseTransitionDetail__c"
                    },
                    "wrts_prcgvr__PhaseTransition__c": "a0Y3N000000hrh7UAA",
                    "wrts_prcgvr__Field__c": "$Global.Context",
                    "wrts_prcgvr__StaticValue__c": "SWI-066",
                    "wrts_prcgvr__Operation__c": "e",
                    "wrts_prcgvr__Type__c": "Condition"
                },
                {
                    "attributes": {
                        "type": "wrts_prcgvr__PhaseTransitionDetail__c"
                    },
                    "wrts_prcgvr__PhaseTransition__c": "a0Y3N000000hrh7UAA",
                    "wrts_prcgvr__Field__c": "Status",
                    "wrts_prcgvr__StaticValue__c": "Canceled",
                    "wrts_prcgvr__Type__c": "Action"
                }
            ]
        },
        {
            "transition": {
                "attributes": {
                    "type": "wrts_prcgvr__PhaseTransition__c"
                },
                "wrts_prcgvr__Type__c": "C",
                "wrts_prcgvr__RecordTypeId__c": "0120Q0000004tYTQAY",
                "wrts_prcgvr__RecordTypeName__c": "SwitchOut_ELE",
                "wrts_prcgvr__OriginPhase__c": "AN010",
                "wrts_prcgvr__Code__c": "d8c5a5c6-1716-40e8-a073-3ba98fb00830",
                "wrts_prcgvr__DestinationPhase__c": "AN010",
                "wrts_prcgvr__Label__c": "Send cancellation",
                "wrts_prcgvr__Description__c": "send cancellation to SAP",
                "wrts_prcgvr__AskForConfirmation__c": false,
                "wrts_prcgvr__IsManualCallout__c": false,
                "wrts_prcgvr__ApexCalloutActions__c": "MRO_SRV_SendMRRcallout(method=\"MRO_SRV_SapCallOut\");",
                "wrts_prcgvr__CalloutParameters__c": "endPoint=sap;requestType=CANC-100;"
            },
            "dependencies": null,
            "actions": null
        },
        {
            "transition": {
                "attributes": {
                    "type": "wrts_prcgvr__PhaseTransition__c"
                },
                "wrts_prcgvr__Type__c": "C",
                "wrts_prcgvr__RecordTypeId__c": "0120Q0000004tYTQAY",
                "wrts_prcgvr__RecordTypeName__c": "SwitchOut_ELE",
                "wrts_prcgvr__OriginPhase__c": "AN020",
                "wrts_prcgvr__Code__c": "863b88ea-590b-4a88-8d03-0fb8a8c7f1b4",
                "wrts_prcgvr__DestinationPhase__c": "AN020",
                "wrts_prcgvr__AskForConfirmation__c": false,
                "wrts_prcgvr__IsManualCallout__c": false,
                "wrts_prcgvr__ApexCalloutActions__c": "MRO_SRV_SendMRRcallout(method=\"MRO_SRV_SapCallOut\");",
                "wrts_prcgvr__CalloutParameters__c": "endPoint=sap;requestType=CANC-100;HDR_PAS_TIPAR=INB002;"
            },
            "dependencies": null,
            "actions": null
        },
        {
            "transition": {
                "attributes": {
                    "type": "wrts_prcgvr__PhaseTransition__c"
                },
                "wrts_prcgvr__Type__c": "C",
                "wrts_prcgvr__RecordTypeId__c": "0120Q0000004tYTQAY",
                "wrts_prcgvr__RecordTypeName__c": "SwitchOut_ELE",
                "wrts_prcgvr__OriginPhase__c": "BL010",
                "wrts_prcgvr__Code__c": "0588ebeb-8ff0-4a7e-bff2-9fe8435dd684",
                "wrts_prcgvr__DestinationPhase__c": "BL010",
                "wrts_prcgvr__AskForConfirmation__c": false,
                "wrts_prcgvr__IsManualCallout__c": false,
                "wrts_prcgvr__ApexCalloutActions__c": "MRO_SRV_SendMRRcallout(method=\"MRO_SRV_SapCallOut\");",
                "wrts_prcgvr__CalloutParameters__c": "endPoint=sap;requestType=mainws;",
                "wrts_prcgvr__Tags__c": "Billing"
            },
            "dependencies": null,
            "actions": null
        },
        {
            "transition": {
                "attributes": {
                    "type": "wrts_prcgvr__PhaseTransition__c"
                },
                "wrts_prcgvr__Type__c": "M",
                "wrts_prcgvr__RecordTypeId__c": "0120Q0000004tYTQAY",
                "wrts_prcgvr__RecordTypeName__c": "SwitchOut_ELE",
                "wrts_prcgvr__OriginPhase__c": "BL010",
                "wrts_prcgvr__Code__c": "03adc347-ab53-4de8-9b43-d91d52bd33d5",
                "wrts_prcgvr__HyperLinkTarget__c": "_self",
                "wrts_prcgvr__DestinationPhase__c": "BL010",
                "wrts_prcgvr__Label__c": "Cancel",
                "wrts_prcgvr__AskForConfirmation__c": false,
                "wrts_prcgvr__HyperLinkUrl__c": "/lightning/cmp/c__MRO_LCP_CancellationRequest?c__originPhase={!Case.Phase__c}&c__recordType=SwitchOut_ELE&c__objectName=Case&c__recordId={!Case.Id}",
                "wrts_prcgvr__IsManualCallout__c": false,
                "wrts_prcgvr__Variant__c": "destructive"
            },
            "dependencies": null,
            "actions": null
        },
        {
            "transition": {
                "attributes": {
                    "type": "wrts_prcgvr__PhaseTransition__c"
                },
                "wrts_prcgvr__Type__c": "M",
                "wrts_prcgvr__RecordTypeId__c": "0120Q0000004tYTQAY",
                "wrts_prcgvr__RecordTypeName__c": "SwitchOut_ELE",
                "wrts_prcgvr__OriginPhase__c": "BL010",
                "wrts_prcgvr__Code__c": "c53261a1-e376-4658-8231-699ac3e407a3",
                "wrts_prcgvr__DestinationPhase__c": "RC010",
                "wrts_prcgvr__Label__c": "TEST ONLY - Cancel",
                "wrts_prcgvr__AskForConfirmation__c": false,
                "wrts_prcgvr__IsManualCallout__c": false,
                "wrts_prcgvr__Variant__c": "neutral"
            },
            "dependencies": null,
            "actions": [
                {
                    "attributes": {
                        "type": "wrts_prcgvr__PhaseTransitionDetail__c"
                    },
                    "wrts_prcgvr__PhaseTransition__c": "a0Y3N000000aDwrUAE",
                    "wrts_prcgvr__Field__c": "Status",
                    "wrts_prcgvr__StaticValue__c": "Canceled",
                    "wrts_prcgvr__Type__c": "Action"
                }
            ]
        },
        {
            "transition": {
                "attributes": {
                    "type": "wrts_prcgvr__PhaseTransition__c"
                },
                "wrts_prcgvr__Type__c": "M",
                "wrts_prcgvr__RecordTypeId__c": "0120Q0000004tYTQAY",
                "wrts_prcgvr__RecordTypeName__c": "SwitchOut_ELE",
                "wrts_prcgvr__OriginPhase__c": "WT010",
                "wrts_prcgvr__Code__c": "aedbdf4c-a413-4fb5-b8b6-b471fc891cee",
                "wrts_prcgvr__DestinationPhase__c": "BL010",
                "wrts_prcgvr__Label__c": "Simulate Time Job",
                "wrts_prcgvr__AskForConfirmation__c": false,
                "wrts_prcgvr__IsManualCallout__c": false,
                "wrts_prcgvr__Variant__c": "neutral"
            },
            "dependencies": null,
            "actions": null
        }
    ],
    "toolName": "PhaseManager",
    "relatedPivotMap": {},
    "recordTypesMap": {
        "0120Q0000004tYaQAI": "Transfer_GAS",
        "0120Q0000004tYZQAY": "Transfer_ELE",
        "0120Q0000004tYYQAY": "Termination_SRV",
        "0123N000000sHctQAE": "Termination_Hard_VAS",
        "0120Q0000004tYXQAY": "Termination_GAS",
        "0120Q0000004tYWQAY": "Termination_ELE",
        "0120Q0000004v2SQAQ": "TechnicalDataChange_GAS",
        "0120Q0000004v2RQAQ": "TechnicalDataChange_ELE",
        "0120Q0000004wsQQAQ": "Tax_Change",
        "0120Q0000004tYUQAY": "SwitchOut_GAS",
        "0120Q0000004tYTQAY": "SwitchOut_ELE",
        "0120Q0000004sLJQAY": "SwitchIn_GAS",
        "0120Q0000004sLIQAY": "SwitchIn_ELE",
        "0120Q0000004wztQAA": "ServicePointAddressChange",
        "0123N000000D60oQAC": "SelfReading_GAS",
        "0123N000000D60nQAC": "SelfReading_ELE",
        "0120Q0000004xGYQAY": "SelfReading",
        "0120Q0000004xGXQAY": "RepaymentRequest",
        "0120Q0000004tYSQAY": "RegistryChangeSlow",
        "0120Q0000004tYRQAY": "RegistryChangeFast",
        "0123N000000e8dxQAA": "RefundRequest",
        "0120Q0000004tYQQAY": "Reactivation_GAS",
        "0120Q0000004tYPQAY": "Reactivation_ELE",
        "0123N000000dVTvQAM": "Prosumers",
        "0120Q0000004vQKQAY": "ProductChange_GAS",
        "0120Q0000004vQJQAY": "ProductChange_ELE",
        "0123N000000sOfFQAU": "PhotovoltaicPanels",
        "0120Q0000004wtNQAQ": "NonDisconnectable_POD_GAS",
        "0120Q0000004wtMQAQ": "NonDisconnectable_POD_ELE",
        "0123N000000oTGXQA2": "NLC_CLC_Update",
        "0120Q00000050P1QAI": "MigratedUndefined",
        "0120Q0000004wrRQAQ": "Meter_Reading_Gas",
        "0120Q0000004wrQQAQ": "Meter_Reading_Ele",
        "0120Q0000004wr2QAA": "MeterCheckGas",
        "0120Q0000004wr1QAA": "MeterCheckEle",
        "0120Q0000004vUCQAY": "MeterChangeGas",
        "0120Q0000004vUBQAY": "MeterChangeEle",
        "0123N000000fKaKQAU": "Location_Approval",
        "0120Q0000004x4UQAQ": "InvoiceDuplicate",
        "0123N000000obgMQAQ": "InsolvencyBankruptcy",
        "0123N000000fKaJQAU": "InformationRequest",
        "0123N000000euLrQAI": "GenericRequest",
        "0123N000000euLqQAI": "GDPRRequest",
        "0120Q0000004xGWQAY": "DemonstratedPayment",
        "0123N000000cmX5QAI": "DecoReco",
        "0120Q0000004xOtQAI": "CustomerDataChange",
        "0123N000000sHcsQAE": "CustomerCompensation",
        "0123N000000rZ33QAE": "ContractualDataChange",
        "0120Q0000004vDHQAY": "ContractMerge",
        "0120Q0000004vDGQAY": "Connection_GAS",
        "0120Q0000004vDFQAY": "Connection_ELE",
        "0120Q0000004wsPQAQ": "Complaint",
        "0123N000000riogQAA": "CompensationForDamages",
        "0120Q0000004tYOQAY": "BillingProfileChange",
        "0123N000000FwEXQA0": "BillingProfileAddressChange",
        "0123N000001g3JKQAY": "BankDirectDebit",
        "0123N000000cqm0QAA": "BailmentManagement",
        "0123N0000011LPnQAM": "ATRExtension",
        "0123N000000daLvQAI": "ANRECompensation",
        "0120Q0000004tYNQAY": "Activation_SRV",
        "0120Q0000004tYMQAY": "Activation_GAS",
        "0120Q0000004tYLQAY": "Activation_ELE",
        "0123N000000sHcrQAE": "Acquisition_Hard_VAS",
        "0120Q0000004xGVQAY": "AccountSituation"
    },
    "recordtypeDevName": "SwitchOut_ELE",
    "recordtype": "0120Q0000004tYTQAY",
    "profilesList": null,
    "objectName": "Case",
    "exportDependency": true
}